<svg width="285" height="330" viewBox="0 0 285 330" fill="none" xmlns="http://www.w3.org/2000/svg">
<mask id="mask0" mask-type="alpha" maskUnits="userSpaceOnUse" x="0" y="0" width="285" height="330">
<path d="M0 311C0 315.971 4.02944 320 9 320H27.1908L41.3868 330L55.5829 320H276C280.971 320 285 315.971 285 311V9C285 4.02942 280.971 0 276 0H9C4.02944 0 0 4.02945 0 9V311Z" fill="url(#paint0_linear)"/>
</mask>
<g mask="url(#mask0)">
<g filter="url(#filter0_d)">
<path d="M0 311C0 315.971 4.02944 320 9 320H27L41.0964 330L55.1928 320H276C280.971 320 285 315.971 285 311V9C285 4.02942 280.971 0 276 0H9C4.02944 0 0 4.02945 0 9V311Z" fill="white"/>
<path d="M27 319.5H27.1593L27.2893 319.592L41.0964 329.387L54.9035 319.592L55.0335 319.5H55.1928H276C280.694 319.5 284.5 315.694 284.5 311V9C284.5 4.30557 280.694 0.5 276 0.5H9C4.30558 0.5 0.5 4.3056 0.5 9V311C0.5 315.694 4.30558 319.5 9 319.5H27Z" stroke="#D9D9D9"/>
</g>
</g>
<defs>
<filter id="filter0_d" x="-9" y="-3" width="303" height="348" filterUnits="userSpaceOnUse" color-interpolation-filters="sRGB">
<feFlood flood-opacity="0" result="BackgroundImageFix"/>
<feColorMatrix in="SourceAlpha" type="matrix" values="0 0 0 0 0 0 0 0 0 0 0 0 0 0 0 0 0 0 127 0"/>
<feOffset dy="6"/>
<feGaussianBlur stdDeviation="4.5"/>
<feColorMatrix type="matrix" values="0 0 0 0 0 0 0 0 0 0 0 0 0 0 0 0 0 0 0.06 0"/>
<feBlend mode="normal" in2="BackgroundImageFix" result="effect1_dropShadow"/>
<feBlend mode="normal" in="SourceGraphic" in2="effect1_dropShadow" result="shape"/>
</filter>
<linearGradient id="paint0_linear" x1="142.5" y1="330" x2="142.996" y2="-2.01202e-05" gradientUnits="userSpaceOnUse">
<stop stop-color="white"/>
<stop offset="1" stop-color="white" stop-opacity="0"/>
</linearGradient>
</defs>
</svg>
