<svg width="22" height="10" viewBox="0 0 22 10" fill="none" xmlns="http://www.w3.org/2000/svg">
<path d="M1 4.75H20.5" stroke-width="2" stroke-linecap="round" stroke-linejoin="round"/>
<path d="M1 4.75L4 1" stroke-width="2" stroke-linecap="round" stroke-linejoin="round"/>
<path d="M1 4.75L4 8.5" stroke-width="2" stroke-linecap="round" stroke-linejoin="round"/>
</svg>
