<svg width="38" height="31" viewBox="0 0 38 31" fill="none" xmlns="http://www.w3.org/2000/svg">
<path d="M36.8369 0.799803V16.8463L29.8602 30.7998H21.2555L26.9532 17.3114L26.6044 16.8463H21.023V0.799803H36.8369Z" fill="#F2F2F2"/>
<path d="M16.6045 0.799803V16.8463L9.74403 30.7998H1.13937L6.83705 17.3114L6.37193 16.8463H0.790537V0.799803H16.6045Z" fill="#F2F2F2"/>
</svg>
