<svg width="35" height="42" viewBox="0 0 35 42" fill="none" xmlns="http://www.w3.org/2000/svg">
<path d="M34.0215 6.56258H29.0996V4.78078C30.0544 4.44216 30.7402 3.53038 30.7402 2.46094C30.7402 1.10398 29.6363 0 28.2793 0H6.95117C5.59421 0 4.49023 1.10398 4.49023 2.46102C4.49023 3.53038 5.1761 4.44216 6.13086 4.78078V6.56258H1.20898C0.755926 6.56258 0.388672 6.92992 0.388672 7.38289V13.1251C0.388672 16.7436 3.33261 19.6876 6.95117 19.6876H7.64475C7.80241 19.9624 7.9709 20.2323 8.15227 20.4955C9.31343 22.1809 10.8806 23.5135 12.7108 24.3831C12.6997 24.4776 12.6934 24.5736 12.6934 24.6711C12.6934 25.8204 13.4855 26.788 14.5524 27.0573C13.5667 30.3414 11.8151 33.7969 9.74023 33.7969H7.77148C7.3578 33.7969 7.00884 34.1049 6.95749 34.5155L6.13718 41.078C6.10797 41.3114 6.18049 41.5462 6.33618 41.7226C6.49188 41.8989 6.71591 42 6.95117 42H28.2793C28.5146 42 28.7386 41.899 28.8943 41.7226C29.05 41.5462 29.1225 41.3113 29.0933 41.078L28.273 34.5155C28.2217 34.1049 27.8727 33.7969 27.459 33.7969H25.4902C24.2344 33.7969 23.1733 32.4782 22.5044 31.3719C21.6447 29.9503 21.0443 28.2757 20.6782 27.0571C21.7451 26.7879 22.5371 25.8202 22.5371 24.671C22.5371 24.5735 22.5308 24.4776 22.5197 24.3831C24.3502 23.5134 25.9175 22.1804 27.0788 20.4947C27.2599 20.2317 27.4282 19.9621 27.5857 19.6876H28.2793C31.8979 19.6876 34.8418 16.7436 34.8418 13.1251V7.38289C34.8418 6.92992 34.4745 6.56258 34.0215 6.56258ZM2.0293 13.1251V8.20321H6.13086V14.0069C6.13086 15.3998 6.38352 16.7627 6.86889 18.0449C4.19287 18.0006 2.0293 15.8114 2.0293 13.1251ZM27.35 40.3594H7.88042L8.49566 35.4375H26.7348L27.35 40.3594ZM22.2564 33.7969H12.9742C13.3727 33.36 13.7571 32.8367 14.1263 32.227C15.1748 30.4954 15.8631 28.4552 16.2396 27.1319H18.991C19.3678 28.4566 20.0547 30.4916 21.1005 32.2209C21.4708 32.8332 21.8564 33.3585 22.2564 33.7969ZM20.0762 25.4913H15.1543C14.702 25.4913 14.334 25.1233 14.334 24.671C14.334 24.2187 14.702 23.8507 15.1543 23.8507H20.0762C20.5285 23.8507 20.8965 24.2187 20.8965 24.671C20.8965 25.1233 20.5285 25.4913 20.0762 25.4913ZM21.7946 22.9117C21.3507 22.478 20.7442 22.21 20.0762 22.21H15.1543C14.4862 22.21 13.8799 22.478 13.4359 22.9117C9.97747 21.2832 7.77148 17.8468 7.77148 14.0069V4.92188H13.9236C14.3766 4.92188 14.7439 4.55454 14.7439 4.10156C14.7439 3.64859 14.3766 3.28125 13.9236 3.28125H6.95117C6.49885 3.28125 6.13086 2.91326 6.13086 2.46094C6.13086 2.00862 6.49885 1.64062 6.95117 1.64062H28.2793C28.7316 1.64062 29.0996 2.00862 29.0996 2.46102C29.0996 2.91334 28.7316 3.28125 28.2793 3.28125H21.3064C20.8533 3.28125 20.4861 3.64859 20.4861 4.10156C20.4861 4.55454 20.8533 4.92188 21.3064 4.92188H27.459V14.0069C27.459 17.8466 25.2529 21.2832 21.7946 22.9117ZM33.2012 13.1251C33.2012 15.8114 31.0376 18.0006 28.3616 18.0449C28.847 16.7628 29.0996 15.3998 29.0996 14.0069V8.20321H33.2012V13.1251Z" fill="#765530"/>
<path d="M17.6155 4.92188C18.0685 4.92188 18.4358 4.55454 18.4358 4.10156C18.4358 3.64859 18.0685 3.28125 17.6155 3.28125H17.6149C17.1618 3.28125 16.7949 3.64859 16.7949 4.10156C16.7949 4.55454 17.1624 4.92188 17.6155 4.92188Z" fill="black"/>
</svg>
